<svg width="32" height="32" viewBox="0 0 32 32" fill="none" xmlns="http://www.w3.org/2000/svg">
<path fill-rule="evenodd" clip-rule="evenodd" d="M27.2001 32H4.8001C3.0353 32 1.6001 30.5648 1.6001 28.8V6.4C1.6001 4.6352 3.0353 3.2 4.8001 3.2H8.0001V0H11.2001V3.2H20.8001V0H24.0001V3.2H27.2001C28.9649 3.2 30.4001 4.6352 30.4001 6.4V28.8C30.4001 30.5648 28.9649 32 27.2001 32ZM27.2017 28.8L27.2001 9.6H4.8001V28.8H27.2017ZM11.2001 14.4H8.0001V17.6H11.2001V14.4ZM11.2001 20.8H8.0001V24H11.2001V20.8ZM17.6001 14.4H14.4001V17.6H17.6001V14.4ZM17.6001 20.8H14.4001V24H17.6001V20.8ZM24.0001 14.4H20.8001V17.6H24.0001V14.4ZM24.0001 20.8H20.8001V24H24.0001V20.8Z" fill="#2ED8C7"/>
</svg>
