<svg
  width="16"
  height="8"
  viewBox="0 0 16 8"
  fill="none"
  xmlns="http://www.w3.org/2000/svg"
>
<path
    d="M0.986387 1.47246C0.98593 1.23881 1.06731 1.01237 1.21639 0.832462C1.30034 0.731204 1.40344 0.647502 1.51978 0.58615C1.63613 0.524798 1.76344 0.487002 1.89441 0.474926C2.02539 0.46285 2.15746 0.476732 2.28307 0.515777C2.40867 0.554821 2.52534 0.61826 2.62639 0.702462L7.98639 5.18246L13.3564 0.862463C13.4587 0.779398 13.5764 0.717366 13.7027 0.679934C13.8291 0.642502 13.9615 0.630408 14.0926 0.644348C14.2236 0.658287 14.3506 0.697984 14.4662 0.761158C14.5819 0.824331 14.6839 0.909736 14.7664 1.01246C14.8574 1.11593 14.9261 1.23709 14.9681 1.36836C15.0101 1.49962 15.0245 1.63814 15.0104 1.77524C14.9963 1.91233 14.954 2.04503 14.8862 2.16501C14.8184 2.285 14.7266 2.38967 14.6164 2.47246L8.61639 7.30246C8.43745 7.44954 8.21301 7.52995 7.98139 7.52995C7.74976 7.52995 7.52532 7.44954 7.34639 7.30246L1.34639 2.30246C1.22537 2.20215 1.12971 2.07471 1.06716 1.9305C1.00461 1.78629 0.976936 1.62937 0.986387 1.47246Z"
    fill="#63667B"
  />
</svg>
