<svg width="25" height="24" viewBox="0 0 25 24" fill="none" xmlns="http://www.w3.org/2000/svg">
<path d="M12.4999 3C7.49959 3 3.44556 7.05403 3.44556 12.0543C3.44556 16.5729 6.75615 20.3181 11.0855 21V14.6722H8.78543V12.0543H11.0855V10.0595C11.0855 7.78841 12.4374 6.53607 14.5047 6.53607C15.4954 6.53607 16.5331 6.71265 16.5331 6.71265V8.93933H15.3885C14.2657 8.93933 13.9143 9.63839 13.9143 10.3547V12.0525H16.4235L16.0224 14.6704H13.9143V20.9982C18.2436 20.32 21.5542 16.5738 21.5542 12.0543C21.5542 7.05403 17.5002 3 12.4999 3Z" fill="white"/>
</svg>
