<svg width="36" height="32" viewBox="0 0 36 32" fill="none" xmlns="http://www.w3.org/2000/svg">
<path fill-rule="evenodd" clip-rule="evenodd" d="M17.9999 0C26.4266 0 33.9999 6.63111 33.9999 16.3911C35.0488 16.9422 35.7777 18.0267 35.7777 19.2711V23.36C35.7777 24.64 35.0488 25.7244 33.9999 26.2756V28.4444C33.9999 30.4 32.3999 32 30.4444 32H17.9999C17.0222 32 16.2222 31.2 16.2222 30.2222C16.2222 29.2444 17.0222 28.4444 17.9999 28.4444H30.4444V15.8222C30.4435 14.1551 30.108 12.505 29.4577 10.9699C28.8073 9.4348 27.8555 8.04585 26.6585 6.88535C25.4616 5.72486 24.0438 4.81645 22.4894 4.21394C20.9349 3.61144 19.2752 3.3271 17.6088 3.37778C10.7999 3.57333 5.5555 9.52889 5.5555 16.3378V24.8889C5.5555 25.8667 4.7555 26.6667 3.77772 26.6667C1.82217 26.6667 0.222168 25.0667 0.222168 23.1111V19.5556C0.222168 18.24 0.933279 17.1022 1.99995 16.4978C1.99995 6.48889 9.66217 0 17.9999 0ZM14.4444 17.7778C14.4444 18.7596 13.6485 19.5556 12.6666 19.5556C11.6848 19.5556 10.8888 18.7596 10.8888 17.7778C10.8888 16.7959 11.6848 16 12.6666 16C13.6485 16 14.4444 16.7959 14.4444 17.7778ZM23.3333 19.5556C24.3151 19.5556 25.1111 18.7596 25.1111 17.7778C25.1111 16.7959 24.3151 16 23.3333 16C22.3514 16 21.5555 16.7959 21.5555 17.7778C21.5555 18.7596 22.3514 19.5556 23.3333 19.5556ZM25.0122 7.8709C26.9482 9.50749 28.2427 11.7762 28.6666 14.2756C23.1199 14.2222 18.3377 11.0044 16.0088 6.32889C15.5443 8.65159 14.5123 10.8233 13.0047 12.6503C11.4972 14.4773 9.56102 15.9029 7.36878 16.8C6.90656 9.79556 12.7021 5.33333 18.0888 5.33333C20.6238 5.33541 23.0763 6.23431 25.0122 7.8709Z" fill="#2ED8C7"/>
</svg>
