<svg width="67" height="66" viewBox="0 0 67 66" fill="none" xmlns="http://www.w3.org/2000/svg">
<path d="M60.0692 26.6054C59.3393 26.607 58.6143 26.7252 57.9216 26.9555C56.6582 27.3812 55.5631 28.1983 54.7952 29.2884C54.0272 30.3784 53.6262 31.6848 53.6503 33.0181C53.6377 38.3612 51.5094 43.4816 47.7311 47.2587C43.9529 51.0357 38.8326 53.1616 33.491 53.171C33.1211 53.171 32.7473 53.171 32.3735 53.1392C22.2282 52.5942 13.8725 44.2124 13.3515 34.0444C13.1607 30.3977 13.9633 26.7676 15.6736 23.5414C17.3839 20.3152 19.9377 17.614 23.0627 15.726C26.1876 13.8381 29.7663 12.8342 33.417 12.8214C37.0677 12.8087 40.6534 13.7877 43.7914 15.6538C44.3266 15.984 44.7269 16.4938 44.9207 17.0922C45.1145 17.6906 45.0892 18.3384 44.8493 18.9198C43.9241 21.1853 42.3473 23.125 40.3189 24.4932C38.2905 25.8614 35.9017 26.5966 33.4552 26.6054C31.7601 26.6138 30.1372 27.293 28.9412 28.4946C27.7451 29.6962 27.0732 31.3225 27.0721 33.0181C27.0508 33.8745 27.201 34.7264 27.5139 35.5238C27.8268 36.3212 28.2961 37.0479 28.8941 37.6611C29.492 38.2743 30.2066 38.7616 30.9958 39.0944C31.7849 39.4271 32.6326 39.5985 33.489 39.5985C34.3454 39.5985 35.1931 39.4271 35.9822 39.0944C36.7714 38.7616 37.486 38.2743 38.084 37.6611C38.6819 37.0479 39.1512 36.3212 39.4641 35.5238C39.777 34.7264 39.9272 33.8745 39.9059 33.0181V32.9226C39.9026 29.6967 41.1587 26.5971 43.4066 24.2839C45.6544 21.9708 48.7164 20.627 51.9402 20.5389H52.2266C53.4821 20.5332 54.7084 20.1588 55.7532 19.4622C56.7979 18.7656 57.6152 17.7775 58.1036 16.6205C58.5919 15.4634 58.7298 14.1884 58.5003 12.9537C58.2707 11.7189 57.6836 10.5788 56.812 9.67475L56.7683 9.62303L56.7365 9.59519C53.6832 6.54505 50.0583 4.12747 46.0695 2.48097C42.0806 0.834473 37.8061 -0.00859609 33.491 6.60776e-05C32.6956 6.60776e-05 31.9002 0.0279126 31.1366 0.0836057C24.8628 0.535801 18.8487 2.77165 13.8025 6.52788C8.75638 10.2841 4.88821 15.4044 2.65348 21.2857C0.41875 27.1671 -0.0894866 33.5647 1.18861 39.7252C2.46671 45.8858 5.47792 51.5529 9.8677 56.0591C12.9181 59.1813 16.5571 61.6675 20.5743 63.3737C24.5915 65.0799 28.9071 65.9724 33.2713 65.9994C37.6356 66.0264 41.9619 65.1874 45.9999 63.531C50.0379 61.8746 53.7074 59.4337 56.7961 56.3495C59.8765 53.2962 62.3203 49.6618 63.9861 45.6568C65.6518 41.6517 66.5063 37.3559 66.5 33.0181C66.4968 31.3149 65.8176 29.6826 64.6117 28.4801C63.4058 27.2776 61.7719 26.6033 60.0692 26.6054Z" fill="#F75A66"/>
</svg>
