<svg width="16" height="20" viewBox="0 0 16 20" fill="none" xmlns="http://www.w3.org/2000/svg">
<path d="M1 8.4445H8.77778C10.428 8.4445 12.0107 9.10005 13.1776 10.2669C14.3444 11.4338 15 13.0165 15 14.6667V16.2223M1 8.4445L5.66667 13.1112M1 8.4445L5.66667 3.77783" stroke="#BEBEC2" stroke-width="1.8" stroke-linecap="round" stroke-linejoin="round"/>
</svg>
