<svg width="33" height="34" viewBox="0 0 33 34" fill="none" xmlns="http://www.w3.org/2000/svg">
<circle cx="16.6667" cy="17" r="14" fill="#FAFAFA"/>
<path fill-rule="evenodd" clip-rule="evenodd" d="M6.76725 26.8995C9.39276 29.525 12.9537 31 16.6667 31C20.3798 31 23.9407 29.525 26.5662 26.8995C29.1918 24.274 30.6667 20.713 30.6667 17C30.6667 13.287 29.1918 9.72601 26.5662 7.1005C23.9407 4.475 20.3798 3 16.6667 3C12.9537 3 9.39276 4.475 6.76725 7.1005C4.14174 9.72601 2.66675 13.287 2.66675 17C2.66675 20.713 4.14174 24.274 6.76725 26.8995ZM27.9805 28.3137C24.9799 31.3143 20.9102 33 16.6667 33C12.4233 33 8.35362 31.3143 5.35304 28.3137C2.35246 25.3131 0.666748 21.2435 0.666748 17C0.666748 12.7565 2.35246 8.68687 5.35304 5.68629C8.35362 2.68571 12.4233 1 16.6667 1C20.9102 1 24.9799 2.68571 27.9805 5.68629C30.981 8.68687 32.6667 12.7565 32.6667 17C32.6667 21.2435 30.981 25.3131 27.9805 28.3137ZM23.8687 21.0625C23.6855 20.9957 23.4867 20.9839 23.2968 21.0286V21.0266L23.2868 21.0306L23.2528 21.0386L23.1188 21.0686C22.3828 21.2336 21.6433 21.383 20.9008 21.5166C19.5168 21.7646 17.8568 22.0006 16.5968 22.0006C15.3368 22.0006 13.6788 21.7646 12.2928 21.5166C11.6088 21.3946 11.0088 21.2706 10.5788 21.1786L10.0748 21.0686L9.94084 21.0386L9.90684 21.0286H9.89684C9.70699 20.9839 9.50821 20.9957 9.32498 21.0625C9.14175 21.1294 8.98206 21.2483 8.86558 21.4048C8.7491 21.5612 8.68091 21.7483 8.66941 21.943C8.6579 22.1377 8.70359 22.3315 8.80084 22.5006C9.5906 23.8693 10.7269 25.0058 12.0955 25.7958C13.4641 26.5858 15.0166 27.0013 16.5968 27.0006C18.1771 27.0013 19.7296 26.5858 21.0982 25.7958C22.4667 25.0058 23.6031 23.8693 24.3928 22.5006C24.4901 22.3315 24.5358 22.1377 24.5243 21.943C24.5128 21.7483 24.4446 21.5612 24.3281 21.4048C24.2116 21.2483 24.0519 21.1294 23.8687 21.0625ZM10.1788 10.1326C11.7048 7.28459 18.2188 9.89259 12.0828 17.0006C3.09084 13.8086 7.38284 8.40459 10.1788 10.1326ZM23.1548 10.1326C25.9508 8.40459 30.2428 13.8086 21.2508 17.0006C15.1168 9.89259 21.6308 7.28459 23.1548 10.1326Z" fill="#2ED8C7"/>
<path d="M5.35304 28.3137L5.52982 28.1369L5.35304 28.3137ZM5.35304 5.68629L5.52982 5.86307L5.35304 5.68629ZM27.9805 5.68629L27.8037 5.86307L27.9805 5.68629ZM23.2968 21.0286H23.0468V21.3443L23.3541 21.2719L23.2968 21.0286ZM23.2968 21.0266H23.5468V20.6572L23.2039 20.7945L23.2968 21.0266ZM23.2868 21.0306L23.3441 21.2739L23.3623 21.2697L23.3797 21.2627L23.2868 21.0306ZM23.2528 21.0386L23.3075 21.2826L23.3101 21.2819L23.2528 21.0386ZM23.1188 21.0686L23.0642 20.8246L23.0641 20.8246L23.1188 21.0686ZM20.9008 21.5166L20.9449 21.7627L20.9451 21.7626L20.9008 21.5166ZM12.2928 21.5166L12.3369 21.2705L12.3367 21.2705L12.2928 21.5166ZM10.5788 21.1786L10.5255 21.4228L10.5265 21.4231L10.5788 21.1786ZM10.0748 21.0686L10.0202 21.3126L10.0215 21.3128L10.0748 21.0686ZM9.94084 21.0386L9.8703 21.2784L9.87819 21.2808L9.88622 21.2825L9.94084 21.0386ZM9.90684 21.0286L9.97738 20.7887L9.94285 20.7786H9.90684V21.0286ZM9.89684 21.0286L9.83955 21.2719L9.86781 21.2786H9.89684V21.0286ZM9.32498 21.0625L9.23931 20.8277L9.32498 21.0625ZM8.66941 21.943L8.41984 21.9283V21.9283L8.66941 21.943ZM8.80084 22.5006L8.58414 22.6252L8.5843 22.6255L8.80084 22.5006ZM12.0955 25.7958L12.2205 25.5793L12.0955 25.7958ZM16.5968 27.0006L16.597 26.7506H16.5967L16.5968 27.0006ZM21.0982 25.7958L20.9732 25.5793L21.0982 25.7958ZM24.3928 22.5006L24.6094 22.6255L24.6095 22.6252L24.3928 22.5006ZM10.1788 10.1326L10.0474 10.3453L10.2736 10.4851L10.3992 10.2507L10.1788 10.1326ZM12.0828 17.0006L11.9992 17.2362L12.1604 17.2934L12.2721 17.1639L12.0828 17.0006ZM23.1548 10.1326L22.9344 10.2505L23.0599 10.4851L23.2863 10.3453L23.1548 10.1326ZM21.2508 17.0006L21.0616 17.1639L21.1733 17.2934L21.3345 17.2362L21.2508 17.0006ZM16.6667 30.75C13.02 30.75 9.52265 29.3013 6.94403 26.7227L6.59048 27.0763C9.26287 29.7487 12.8874 31.25 16.6667 31.25V30.75ZM26.3895 26.7227C23.8108 29.3013 20.3135 30.75 16.6667 30.75V31.25C20.4461 31.25 24.0706 29.7487 26.743 27.0763L26.3895 26.7227ZM30.4167 17C30.4167 20.6467 28.9681 24.1441 26.3895 26.7227L26.743 27.0763C29.4154 24.4039 30.9167 20.7793 30.9167 17H30.4167ZM26.3895 7.27728C28.9681 9.85591 30.4167 13.3533 30.4167 17H30.9167C30.9167 13.2207 29.4154 9.59612 26.743 6.92373L26.3895 7.27728ZM16.6667 3.25C20.3135 3.25 23.8108 4.69866 26.3895 7.27728L26.743 6.92373C24.0706 4.25133 20.4461 2.75 16.6667 2.75V3.25ZM6.94403 7.27728C9.52265 4.69866 13.02 3.25 16.6667 3.25V2.75C12.8874 2.75 9.26287 4.25133 6.59048 6.92373L6.94403 7.27728ZM2.91675 17C2.91675 13.3533 4.3654 9.85591 6.94403 7.27728L6.59048 6.92373C3.91808 9.59612 2.41675 13.2207 2.41675 17H2.91675ZM6.94403 26.7227C4.3654 24.1441 2.91675 20.6467 2.91675 17H2.41675C2.41675 20.7793 3.91808 24.4039 6.59048 27.0763L6.94403 26.7227ZM16.6667 33.25C20.9765 33.25 25.1098 31.538 28.1572 28.4905L27.8037 28.1369C24.85 31.0906 20.8439 32.75 16.6667 32.75V33.25ZM5.17626 28.4905C8.22373 31.538 12.357 33.25 16.6667 33.25V32.75C12.4896 32.75 8.48351 31.0906 5.52982 28.1369L5.17626 28.4905ZM0.416748 17C0.416748 21.3098 2.1288 25.443 5.17626 28.4905L5.52982 28.1369C2.57612 25.1832 0.916748 21.1772 0.916748 17H0.416748ZM5.17626 5.50951C2.1288 8.55698 0.416748 12.6902 0.416748 17H0.916748C0.916748 12.8228 2.57612 8.81677 5.52982 5.86307L5.17626 5.50951ZM16.6667 0.75C12.357 0.75 8.22373 2.46205 5.17626 5.50951L5.52982 5.86307C8.48351 2.90937 12.4896 1.25 16.6667 1.25V0.75ZM28.1572 5.50951C25.1098 2.46205 20.9765 0.75 16.6667 0.75V1.25C20.8439 1.25 24.85 2.90937 27.8037 5.86307L28.1572 5.50951ZM32.9167 17C32.9167 12.6902 31.2047 8.55698 28.1572 5.50951L27.8037 5.86307C30.7574 8.81677 32.4167 12.8228 32.4167 17H32.9167ZM28.1572 28.4905C31.2047 25.443 32.9167 21.3098 32.9167 17H32.4167C32.4167 21.1772 30.7574 25.1832 27.8037 28.1369L28.1572 28.4905ZM23.3541 21.2719C23.4965 21.2384 23.6456 21.2473 23.783 21.2974L23.9544 20.8277C23.7253 20.7441 23.4769 20.7294 23.2395 20.7852L23.3541 21.2719ZM23.0468 21.0266V21.0286H23.5468V21.0266H23.0468ZM23.3797 21.2627L23.3897 21.2587L23.2039 20.7945L23.194 20.7985L23.3797 21.2627ZM23.3101 21.2819L23.3441 21.2739L23.2296 20.7872L23.1956 20.7952L23.3101 21.2819ZM23.1735 21.3125L23.3075 21.2825L23.1982 20.7946L23.0642 20.8246L23.1735 21.3125ZM20.9451 21.7626C21.691 21.6284 22.434 21.4784 23.1735 21.3125L23.0641 20.8246C22.3315 20.9889 21.5955 21.1376 20.8566 21.2705L20.9451 21.7626ZM16.5968 22.2506C17.8803 22.2506 19.5586 22.0111 20.9449 21.7627L20.8567 21.2705C19.4751 21.5181 17.8334 21.7506 16.5968 21.7506V22.2506ZM12.2488 21.7627C13.6371 22.0111 15.3134 22.2506 16.5968 22.2506V21.7506C15.3603 21.7506 13.7206 21.5181 12.3369 21.2705L12.2488 21.7627ZM10.5265 21.4231C10.9581 21.5154 11.5611 21.64 12.2489 21.7627L12.3367 21.2705C11.6566 21.1492 11.0596 21.0258 10.6311 20.9341L10.5265 21.4231ZM10.0215 21.3128L10.5255 21.4228L10.6322 20.9343L10.1282 20.8243L10.0215 21.3128ZM9.88622 21.2825L10.0202 21.3125L10.1295 20.8246L9.99546 20.7946L9.88622 21.2825ZM9.8363 21.2684L9.8703 21.2784L10.0114 20.7987L9.97738 20.7887L9.8363 21.2684ZM9.89684 21.2786H9.90684V20.7786H9.89684V21.2786ZM9.41065 21.2974C9.54808 21.2473 9.69716 21.2384 9.83955 21.2719L9.95414 20.7852C9.71682 20.7294 9.46835 20.7441 9.23931 20.8277L9.41065 21.2974ZM9.0661 21.5541C9.15346 21.4367 9.27323 21.3475 9.41065 21.2974L9.23931 20.8277C9.01027 20.9112 8.81066 21.0599 8.66506 21.2555L9.0661 21.5541ZM8.91897 21.9577C8.9276 21.8117 8.97874 21.6714 9.0661 21.5541L8.66506 21.2555C8.51946 21.451 8.43422 21.6849 8.41984 21.9283L8.91897 21.9577ZM9.01755 22.3759C8.94461 22.2491 8.91034 22.1038 8.91897 21.9577L8.41984 21.9283C8.40546 22.1716 8.46257 22.4139 8.58414 22.6252L9.01755 22.3759ZM12.2205 25.5793C10.89 24.8113 9.78519 23.7063 9.01738 22.3756L8.5843 22.6255C9.39601 24.0323 10.5639 25.2004 11.9706 26.0123L12.2205 25.5793ZM16.5967 26.7506C15.0604 26.7513 13.5511 26.3473 12.2205 25.5793L11.9706 26.0123C13.3772 26.8242 14.9728 27.2513 16.597 27.2506L16.5967 26.7506ZM20.9732 25.5793C19.6426 26.3473 18.1333 26.7513 16.597 26.7506L16.5967 27.2506C18.2209 27.2513 19.8165 26.8242 21.2231 26.0123L20.9732 25.5793ZM24.1763 22.3756C23.4085 23.7063 22.3037 24.8113 20.9732 25.5793L21.2231 26.0123C22.6297 25.2004 23.7977 24.0323 24.6094 22.6255L24.1763 22.3756ZM24.2747 21.9577C24.2833 22.1038 24.2491 22.2491 24.1761 22.3759L24.6095 22.6252C24.7311 22.4139 24.7882 22.1716 24.7738 21.9283L24.2747 21.9577ZM24.1276 21.5541C24.2149 21.6714 24.2661 21.8117 24.2747 21.9577L24.7738 21.9283C24.7595 21.6849 24.6742 21.451 24.5286 21.2555L24.1276 21.5541ZM23.783 21.2974C23.9205 21.3475 24.0402 21.4367 24.1276 21.5541L24.5286 21.2555C24.383 21.0599 24.1834 20.9112 23.9544 20.8277L23.783 21.2974ZM10.3992 10.2507C11.0651 9.00797 12.8585 8.91991 13.8172 9.99912C14.2843 10.5249 14.5591 11.3463 14.343 12.4815C14.1257 13.623 13.4108 15.0797 11.8936 16.8372L12.2721 17.1639C13.8229 15.3675 14.5948 13.8327 14.8342 12.575C15.0747 11.3112 14.7762 10.3258 14.191 9.66705C13.0452 8.37727 10.8186 8.40921 9.95848 10.0145L10.3992 10.2507ZM12.1665 16.765C9.94185 15.9753 8.56679 15.0581 7.7862 14.1725C7.00929 13.2911 6.82392 12.4468 6.95574 11.7693C7.22468 10.3872 8.81481 9.58347 10.0474 10.3453L10.3103 9.91992C8.74688 8.9537 6.79301 9.98793 6.46495 11.6738C6.29827 12.5304 6.55115 13.5275 7.41111 14.5031C8.2674 15.4746 9.72784 16.4299 11.9992 17.2362L12.1665 16.765ZM23.2863 10.3453C24.5189 9.58347 26.109 10.3872 26.3779 11.7693C26.5098 12.4468 26.3244 13.2911 25.5475 14.1725C24.7669 15.0581 23.3918 15.9753 21.1672 16.765L21.3345 17.2362C23.6058 16.4299 25.0663 15.4746 25.9226 14.5031C26.7825 13.5275 27.0354 12.5304 26.8687 11.6738C26.5407 9.98793 24.5868 8.9537 23.0234 9.91992L23.2863 10.3453ZM21.4401 16.8373C19.9234 15.0797 19.2089 13.6231 18.9918 12.4816C18.776 11.3463 19.0509 10.5249 19.518 9.99912C20.4768 8.91983 22.2696 9.00809 22.9344 10.2505L23.3753 10.0146C22.5161 8.40909 20.2899 8.37735 19.1442 9.66705C18.559 10.3258 18.2603 11.3111 18.5007 12.575C18.7398 13.8326 19.5113 15.3675 21.0616 17.1639L21.4401 16.8373Z" fill="#2ED8C7"/>
</svg>
