<svg width="19" height="19" viewBox="0 0 19 19" fill="none" xmlns="http://www.w3.org/2000/svg">
<path d="M18.2043 16.7848L14.8054 13.3958C15.902 11.9988 16.4971 10.2735 16.4948 8.49743C16.4948 6.91569 16.0258 5.36947 15.147 4.0543C14.2683 2.73913 13.0192 1.71408 11.5579 1.10877C10.0966 0.503465 8.48855 0.34509 6.93721 0.653672C5.38586 0.962254 3.96085 1.72393 2.84239 2.84239C1.72393 3.96085 0.962254 5.38586 0.653672 6.93721C0.34509 8.48855 0.503465 10.0966 1.10877 11.5579C1.71408 13.0192 2.73913 14.2683 4.0543 15.147C5.36947 16.0258 6.91569 16.4948 8.49743 16.4948C10.2735 16.4971 11.9988 15.902 13.3958 14.8054L16.7848 18.2043C16.8777 18.298 16.9883 18.3724 17.1101 18.4231C17.2319 18.4739 17.3626 18.5 17.4945 18.5C17.6265 18.5 17.7572 18.4739 17.879 18.4231C18.0008 18.3724 18.1114 18.298 18.2043 18.2043C18.298 18.1114 18.3724 18.0008 18.4231 17.879C18.4739 17.7572 18.5 17.6265 18.5 17.4945C18.5 17.3626 18.4739 17.2319 18.4231 17.1101C18.3724 16.9883 18.298 16.8777 18.2043 16.7848ZM2.49936 8.49743C2.49936 7.31112 2.85114 6.15146 3.51022 5.16508C4.16929 4.1787 5.10606 3.40991 6.20207 2.95593C7.29807 2.50196 8.50408 2.38317 9.66759 2.61461C10.8311 2.84605 11.8999 3.41731 12.7387 4.25615C13.5775 5.095 14.1488 6.16375 14.3802 7.32726C14.6117 8.49077 14.4929 9.69678 14.0389 10.7928C13.5849 11.8888 12.8162 12.8256 11.8298 13.4846C10.8434 14.1437 9.68373 14.4955 8.49743 14.4955C6.90664 14.4955 5.38101 13.8636 4.25615 12.7387C3.1313 11.6138 2.49936 10.0882 2.49936 8.49743Z" fill="#BEBEC2"/>
</svg>
