<svg width="35" height="32" viewBox="0 0 35 32" fill="none" xmlns="http://www.w3.org/2000/svg">
<path fill-rule="evenodd" clip-rule="evenodd" d="M30.4014 3.30326C31.124 4.12908 32.053 4.64522 33.0853 4.85167C33.4982 4.9549 33.8079 4.9549 34.324 4.9549V8.46462C32.5691 8.46462 30.8143 7.94848 29.3691 6.91621V14.1421C29.3691 15.3808 28.9562 16.7228 28.2336 17.755C27.511 18.7873 26.4787 19.6131 25.24 20.1293C24.0013 20.5422 22.6593 20.7486 21.4206 20.4389C20.1819 20.1293 19.0464 19.5099 18.1174 18.5809C17.1883 17.6518 16.569 16.5163 16.3625 15.2776C16.0528 14.0389 16.156 12.6969 16.6722 11.5614C17.1883 10.4259 18.0141 9.39366 19.0464 8.67107C20.0787 7.94848 21.3174 7.53557 22.5561 7.53557C22.711 7.53557 22.8916 7.56138 23.0723 7.58719C23.2529 7.61299 23.4335 7.6388 23.5884 7.6388V11.2517C23.2787 11.1485 22.969 11.1485 22.6594 11.1485H22.6593C22.1432 11.1485 21.6271 11.2517 21.1109 11.5614C20.5948 11.8711 20.1819 12.284 19.9754 12.8001C19.6658 13.3163 19.5625 13.9356 19.6658 14.4518C19.769 15.0711 19.9754 15.5873 20.2851 16.0002C20.698 16.5163 21.2142 16.826 21.8335 17.0325C22.4529 17.2389 23.0723 17.2389 23.6916 17.0325C24.2078 16.826 24.7239 16.4131 25.1368 15.897C25.4465 15.3808 25.6529 14.7615 25.6529 14.1421V0H29.1626V0.516135C29.2659 1.54841 29.6788 2.47745 30.4014 3.30326ZM16.301 32.0004C16.301 28.4888 19.1476 25.6422 22.6591 25.6422C26.1707 25.6422 29.0173 28.4888 29.0173 32.0004H32.8173C32.8173 26.3902 28.2693 21.8422 22.6591 21.8422C17.0489 21.8422 12.501 26.3902 12.501 32.0004H16.301Z" fill="#F22548"/>
<path d="M5.23193 13L10.5653 13" stroke="#F22548" stroke-width="3.2" stroke-linecap="round"/>
<path d="M8.7876 26L10.5654 26" stroke="#F22548" stroke-width="3.2" stroke-linecap="round"/>
<path d="M1.67627 19.5557H10.5652" stroke="#F22548" stroke-width="3.2" stroke-linecap="round"/>
</svg>
