<svg width="137" height="32" viewBox="0 0 137 32" fill="none" xmlns="http://www.w3.org/2000/svg">
<path d="M11.0291 12.6023V11.3554C10.5962 11.2868 10.159 11.2492 9.72078 11.2429C5.47837 11.234 1.72231 13.9832 0.448344 18.0299C-0.825587 22.0766 0.678156 26.4817 4.16067 28.9047C1.552 26.1128 0.82763 22.0486 2.31117 18.5274C3.79471 15.0062 7.20909 12.6857 11.0291 12.6023Z" fill="#3D405B"/>
<path d="M11.2641 26.7276C13.6361 26.7245 15.5859 24.8557 15.6898 22.486V1.33895H19.5532C19.4744 0.897075 19.4367 0.448834 19.4408 0L14.1566 0V21.1266C14.0687 23.5084 12.1144 25.395 9.73095 25.3989C9.0187 25.3929 8.31807 25.2177 7.68677 24.8879C8.0959 25.4547 8.63322 25.9169 9.2549 26.2366C9.87659 26.5563 10.565 26.7245 11.2641 26.7276H11.2641ZM26.7692 8.51402V7.33859C25.3473 7.33908 23.957 6.9195 22.7728 6.13252C23.8109 7.33933 25.2137 8.1753 26.7692 8.51402H26.7692Z" fill="#3D405B"/>
<path d="M22.773 6.13267C21.6065 4.8043 20.9634 3.09671 20.9639 1.32886H19.5534C19.7356 2.30629 20.115 3.23635 20.6685 4.06227C21.2221 4.8882 21.9381 5.59266 22.773 6.13267ZM9.7209 16.5273C7.68536 16.5378 5.91815 17.9323 5.43472 19.9096C4.95125 21.887 5.87562 23.9395 7.67672 24.888C6.70081 23.5407 6.56294 21.7598 7.31983 20.2784C8.07681 18.7968 9.60059 17.865 11.2643 17.8663C11.7079 17.8718 12.1484 17.9407 12.5726 18.0707V12.6945C12.1394 12.6296 11.7022 12.5954 11.2643 12.5923H11.0292V16.6806C10.6028 16.5663 10.1621 16.5146 9.72086 16.5273L9.7209 16.5273Z" fill="#E0E0E5"/>
<path d="M26.7695 8.51416V12.6025C24.1374 12.5974 21.5735 11.7642 19.4411 10.221V20.9632C19.4299 26.3234 15.0813 30.6628 9.72108 30.6628C7.73041 30.6664 5.78768 30.0521 4.16089 28.9048C6.87579 31.8247 11.101 32.7859 14.8118 31.3278C18.5226 29.8696 20.9632 26.2892 20.964 22.3021V11.5906C23.1035 13.1237 25.6706 13.946 28.3026 13.9414V8.67768C27.7873 8.67605 27.2736 8.62125 26.7695 8.51416H26.7695Z" fill="#E0E0E5"/>
<path d="M19.4409 20.9632V10.221C21.5798 11.7554 24.1472 12.5778 26.7795 12.5719V8.48349C25.2244 8.1551 23.8182 7.33003 22.7729 6.13267C21.9381 5.59266 21.2221 4.8882 20.6685 4.06227C20.115 3.23635 19.7355 2.30629 19.5534 1.32886H15.6899V22.4861C15.6126 24.3737 14.3483 26.0052 12.5398 26.5512C10.7313 27.0972 8.77534 26.4379 7.66645 24.9084C5.8654 23.96 4.94103 21.9074 5.42446 19.9301C5.90793 17.9527 7.67509 16.5582 9.71064 16.5478C10.1543 16.5518 10.5951 16.6206 11.0189 16.7522V12.6638C7.17746 12.7289 3.73727 15.0576 2.24957 18.5998C0.761834 22.142 1.50756 26.2287 4.15049 29.0173C5.79332 30.1267 7.73887 30.7015 9.72088 30.6628C15.0811 30.6628 19.4297 26.3234 19.4409 20.9632Z" fill="#63667B"/>
<path d="M45.0541 30.6754H39.4676V12.5166H33.8918L33.8811 7.53894H51.0999L49.519 12.5166H45.0541V30.6754ZM90.4831 30.6754H84.9073V12.5166H79.3101L79.2994 7.53894H96.9135L95.3326 12.5166H90.4831V30.6754ZM52.1467 14.8986H57.6691V30.6754H52.1894L52.1467 14.8986ZM67.0049 22.9953L65.3706 24.5762V30.6754H59.8588V7.47485H65.3706V18.2526L70.8396 12.9118H77.4195L70.5084 19.6199L78.2526 30.6754H72.1748L67.0049 22.9953ZM125.433 22.9953L123.853 24.5762V30.6754H118.33L118.277 7.47485H123.853V18.2526L129.311 12.9118H135.891L128.98 19.6199L136.671 30.6754H130.593L125.433 22.9953Z" fill="#63667B"/>
<path d="M54.913 13.0933C56.4468 13.0933 57.6902 11.8499 57.6902 10.316C57.6902 8.78223 56.4468 7.53882 54.913 7.53882C53.3791 7.53882 52.1357 8.78223 52.1357 10.316C52.1357 11.8499 53.3791 13.0933 54.913 13.0933Z" fill="#63667B"/>
<path d="M96.2084 21.2328C96.2101 16.3049 100.001 12.2069 104.914 11.8223H104.091C99.0985 12.1135 95.1987 16.2474 95.1987 21.2488C95.1987 26.2502 99.0985 30.3841 104.091 30.6754H104.914C99.9888 30.2898 96.1933 26.173 96.2084 21.2328Z" fill="#3D405B"/>
<path d="M107.061 11.7904H106.228C111.125 12.1949 114.893 16.2873 114.893 21.2009C114.893 26.1146 111.125 30.207 106.228 30.6115H107.061C112.276 30.6115 116.504 26.3839 116.504 21.1689C116.504 15.9539 112.276 11.7263 107.061 11.7263V11.7904Z" fill="#E0E0E5"/>
<path d="M105.565 25.826C103.029 25.826 100.972 23.7695 100.972 21.2329C100.972 18.6962 103.029 16.6397 105.565 16.6397C108.102 16.6397 110.158 18.6962 110.158 21.2329C110.153 23.7671 108.1 25.8201 105.565 25.826ZM105.565 11.7903C100.35 11.7903 96.1228 16.0179 96.1228 21.2329C96.1228 26.4478 100.35 30.6754 105.565 30.6754C110.78 30.6754 115.008 26.4478 115.008 21.2329C115.008 18.7285 114.013 16.3268 112.242 14.556C110.471 12.7851 108.07 11.7903 105.565 11.7903Z" fill="#63667B"/>
</svg>
