<svg width="32" height="32" viewBox="0 0 32 32" fill="none" xmlns="http://www.w3.org/2000/svg">
<path d="M14.4365 18.9354V21.5445C12.3605 21.5445 10.3696 22.3691 8.9017 23.8371C7.43379 25.305 6.60912 27.2959 6.60912 29.3718H4C4 26.6039 5.09956 23.9494 7.05678 21.9921C9.014 20.0349 11.6686 18.9354 14.4365 18.9354ZM14.4365 17.6308C10.1119 17.6308 6.60912 14.1281 6.60912 9.80344C6.60912 5.47882 10.1119 1.97607 14.4365 1.97607C18.7611 1.97607 22.2638 5.47882 22.2638 9.80344C22.2638 14.1281 18.7611 17.6308 14.4365 17.6308ZM14.4365 15.0217C17.3196 15.0217 19.6547 12.6865 19.6547 9.80344C19.6547 6.92036 17.3196 4.5852 14.4365 4.5852C11.5534 4.5852 9.21824 6.92036 9.21824 9.80344C9.21824 12.6865 11.5534 15.0217 14.4365 15.0217ZM17.8218 25.2129C17.6564 24.5168 17.6564 23.7917 17.8218 23.0956L16.5277 22.3481L17.8323 20.0886L19.1264 20.8361C19.6458 20.3441 20.2737 19.9813 20.9593 19.7768V18.2831H23.5684V19.7768C24.2624 19.9829 24.8886 20.3508 25.4013 20.8361L26.6954 20.0886L28 22.3481L26.7059 23.0956C26.8711 23.7913 26.8711 24.5159 26.7059 25.2116L28 25.9591L26.6954 28.2186L25.4013 27.4711C24.8819 27.9631 24.254 28.326 23.5684 28.5304V30.0241H20.9593V28.5304C20.2737 28.326 19.6458 27.9631 19.1264 27.4711L17.8323 28.2186L16.5277 25.9591L17.8218 25.2129ZM22.2638 26.1104C22.7828 26.1104 23.2806 25.9043 23.6475 25.5373C24.0145 25.1703 24.2207 24.6726 24.2207 24.1536C24.2207 23.6346 24.0145 23.1369 23.6475 22.7699C23.2806 22.4029 22.7828 22.1968 22.2638 22.1968C21.7449 22.1968 21.2471 22.4029 20.8802 22.7699C20.5132 23.1369 20.307 23.6346 20.307 24.1536C20.307 24.6726 20.5132 25.1703 20.8802 25.5373C21.2471 25.9043 21.7449 26.1104 22.2638 26.1104Z" fill="#F22548" stroke="#F22548" stroke-width="0.5"/>
</svg>
