<svg width="25" height="24" viewBox="0 0 25 24" fill="none" xmlns="http://www.w3.org/2000/svg">
<path fill-rule="evenodd" clip-rule="evenodd" d="M16.6042 13.7865C16.3807 13.6748 15.2849 13.1363 15.0809 13.0613C14.8769 12.987 14.7284 12.9503 14.5792 13.1738C14.4307 13.3958 14.004 13.8983 13.8742 14.0468C13.7437 14.196 13.614 14.214 13.3912 14.103C13.1685 13.9905 12.45 13.7558 11.5987 12.9968C10.9365 12.4058 10.4887 11.676 10.359 11.4525C10.2292 11.2298 10.3447 11.109 10.4565 10.998C10.557 10.8983 10.6792 10.7378 10.791 10.608C10.9027 10.4775 10.9395 10.3845 11.0137 10.2353C11.0887 10.0868 11.0512 9.95702 10.995 9.84527C10.9395 9.73352 10.494 8.63627 10.308 8.19002C10.1272 7.75577 9.94346 7.81502 9.80696 7.80752C9.67646 7.80152 9.52796 7.80002 9.37946 7.80002C9.23096 7.80002 8.98946 7.85552 8.78546 8.07902C8.58071 8.30177 8.00546 8.84102 8.00546 9.93827C8.00546 11.0348 8.80346 12.0945 8.91521 12.2438C9.02696 12.3923 10.4865 14.6438 12.7222 15.609C13.2547 15.8385 13.6695 15.9758 13.9927 16.0778C14.5267 16.248 15.0127 16.224 15.3967 16.1663C15.8242 16.1025 16.7152 15.627 16.9012 15.1065C17.0864 14.586 17.0864 14.1398 17.0309 14.0468C16.9754 13.9538 16.8269 13.8983 16.6034 13.7865H16.6042ZM12.5377 19.3388H12.5347C11.2068 19.339 9.90324 18.982 8.76071 18.3053L8.49071 18.1448L5.68422 18.8813L6.43346 16.1453L6.25721 15.8648C5.51482 14.683 5.12194 13.3153 5.12397 11.9198C5.12547 7.83227 8.45096 4.50678 12.5407 4.50678C14.5207 4.50678 16.3822 5.27928 17.7817 6.68027C18.472 7.36771 19.0191 8.1852 19.3914 9.08544C19.7637 9.98569 19.9538 10.9508 19.9507 11.925C19.9492 16.0125 16.6237 19.3388 12.5377 19.3388ZM18.8467 5.61603C18.0203 4.78422 17.0371 4.12468 15.954 3.67563C14.8709 3.22658 13.7095 2.99694 12.537 3.00003C7.62146 3.00003 3.61947 7.00127 3.61797 11.919C3.61722 13.491 4.02747 15.0255 4.80822 16.3778L3.54297 21L8.27096 19.7595C9.57886 20.4721 11.0445 20.8455 12.534 20.8455H12.5377C17.4532 20.8455 21.4552 16.8443 21.4567 11.9258C21.4603 10.7537 21.2315 9.59259 20.7835 8.50955C20.3355 7.4265 19.6772 6.44303 18.8467 5.61603Z" fill="white"/>
<path d="M18.8467 5.61603C18.0203 4.78422 17.0371 4.12468 15.954 3.67563C14.8709 3.22658 13.7095 2.99694 12.537 3.00003C7.62146 3.00003 3.61947 7.00127 3.61797 11.919C3.61722 13.491 4.02747 15.0255 4.80822 16.3778L3.54297 21L8.27096 19.7595C9.57886 20.4721 11.0445 20.8455 12.534 20.8455H12.5377C17.4532 20.8455 21.4552 16.8443 21.4567 11.9258C21.4603 10.7537 21.2315 9.59259 20.7835 8.50955C20.3355 7.4265 19.6772 6.44303 18.8467 5.61603M16.6042 13.7865C16.3807 13.6748 15.2849 13.1363 15.0809 13.0613C14.8769 12.987 14.7285 12.9503 14.5792 13.1738C14.4307 13.3958 14.004 13.8983 13.8742 14.0468C13.7437 14.196 13.614 14.214 13.3912 14.103C13.1685 13.9905 12.45 13.7558 11.5987 12.9968C10.9365 12.4058 10.4887 11.676 10.359 11.4525C10.2292 11.2298 10.3447 11.109 10.4565 10.998C10.557 10.8983 10.6792 10.7378 10.791 10.608C10.9027 10.4775 10.9395 10.3845 11.0137 10.2353C11.0887 10.0868 11.0512 9.95702 10.995 9.84527C10.9395 9.73352 10.494 8.63627 10.308 8.19002C10.1272 7.75577 9.94346 7.81502 9.80696 7.80752C9.67646 7.80152 9.52796 7.80002 9.37946 7.80002C9.23096 7.80002 8.98946 7.85552 8.78546 8.07902C8.58071 8.30177 8.00546 8.84102 8.00546 9.93827C8.00546 11.0348 8.80346 12.0945 8.91521 12.2438C9.02696 12.3923 10.4865 14.6438 12.7222 15.609C13.2547 15.8385 13.6695 15.9758 13.9927 16.0778C14.5267 16.248 15.0127 16.224 15.3967 16.1663C15.8242 16.1025 16.7152 15.627 16.9012 15.1065C17.0864 14.586 17.0864 14.1398 17.0309 14.0468C16.9754 13.9538 16.8269 13.8983 16.6034 13.7865H16.6042ZM12.5377 19.3388H12.5347C11.2068 19.339 9.90324 18.982 8.76071 18.3053L8.49071 18.1448L5.68422 18.8813L6.43346 16.1453L6.25721 15.8648C5.51482 14.683 5.12194 13.3153 5.12397 11.9198C5.12547 7.83227 8.45096 4.50678 12.5407 4.50678C14.5207 4.50678 16.3822 5.27928 17.7817 6.68027C18.472 7.36771 19.0191 8.1852 19.3914 9.08544C19.7637 9.98569 19.9538 10.9508 19.9507 11.925C19.9492 16.0125 16.6237 19.3388 12.5377 19.3388V19.3388Z" stroke="white" stroke-width="0.4"/>
</svg>
